…
    body > font:nth-child(1) > table:nth-child(1) > tbody:nth-child(1) > tr:nth-child(1) > td:nth-child(2) > div:nth-child(5) > center:nth-child(1) > table:nth-child(4) > tbody:nth-child(1)

Output is like:

    ## # A tibble: 241,118 × 5
    ##    Player             Rating   Age dateranking    ranking
    ##    <chr>               <int> <dbl> <chr>            <int>
    ##  1 Kasparov, Garry K    2884  37.0 April 10, 2000       1
    ##  2 Anand, Viswanathan   2796  30.3 April 10, 2000       2
    ##  3 Kramnik, Vladimir    2793  24.8 April 10, 2000       3
    ##  4 Shirov, Alexei       2778  27.8 April 10, 2000       4
    ##  5 Leko, Peter          2765  20.6 April 10, 2000       5
    ##  6 Topalov, Veselin     2746  25.1 April 10, 2000       6
    ##  7 Ivanchuk, Vassily    2738  31.1 April 10, 2000       7
    ##  8 Adams, Michael       2736  28.4 April 10, 2000       8
    ##  9 Gelfand, Boris       2731  31.8 April 10, 2000       9
    ## 10 Kamsky, Gata         2716  25.9 April 10, 2000      10
    ## # … with 241,108 more rows
…
    body > form:nth-child(1) > table:nth-child(4)

Output is like:

    ## # A tibble: 241,118 × 5
    ##    Player             Rating   Age dateranking    ranking
    ##    <chr>               <int> <dbl> <chr>            <int>
    ##  1 Kasparov, Garry K    2884  37.0 April 10, 2000       1
    ##  2 Anand, Viswanathan   2796  30.3 April 10, 2000       2
    ##  3 Kramnik, Vladimir    2793  24.8 April 10, 2000       3
    ##  4 Shirov, Alexei       2778  27.8 April 10, 2000       4
    ##  5 Leko, Peter          2765  20.6 April 10, 2000       5
    ##  6 Topalov, Veselin     2746  25.1 April 10, 2000       6
    ##  7 Ivanchuk, Vassily    2738  31.1 April 10, 2000       7
    ##  8 Adams, Michael       2736  28.4 April 10, 2000       8
    ##  9 Gelfand, Boris       2731  31.8 April 10, 2000       9
    ## 10 Kamsky, Gata         2716  25.9 April 10, 2000      10
    ## # … with 241,108 more rows
